%YAML 1.1
%TAG !u! tag:unity3d.com,2011:
--- !u!114 &11400000
MonoBehaviour:
  m_ObjectHideFlags: 0
  m_CorrespondingSourceObject: {fileID: 0}
  m_PrefabInstance: {fileID: 0}
  m_PrefabAsset: {fileID: 0}
  m_GameObject: {fileID: 0}
  m_Enabled: 1
  m_EditorHideFlags: 0
  m_Script: {fileID: 11500000, guid: 814ed1e3d7dbf304f8b23552c5026e40, type: 3}
  m_Name: CustomRenderPipeline
  m_EditorClassIdentifier: 
  useDynamicBatching: 1
  useGPUInstancing: 1
  useSRPBatcher: 1
  useLightsPerObject: 0
  shadows:
    maxDistance: 50
    distanceFade: 0.1
    directional:
      atlasSize: 1024
      filter: 3
      cascadeCount: 1
      cascadeRatio1: 0.25
      cascadeRatio2: 0.25
      cascadeRatio3: 0.5
      cascadeFade: 0.1
      cascadeBlend: 1
  postFXSettings: {fileID: 11400000, guid: 5fc578fa30574e64fb02adf2906c5167, type: 2}
  cameraBuffer:
    allowHDR: 1
    copyDepth: 1
    copyDepthReflections: 0
    copyColor: 1
    copyColorReflection: 0
  colorLUTResolution: 32
  cameraRendererShader: {fileID: 4800000, guid: 6b27ea8a7b081c5439ce550427d0ba53,
    type: 3}
