%YAML 1.1
%TAG !u! tag:unity3d.com,2011:
--- !u!1001 &100100000
Prefab:
  m_ObjectHideFlags: 1
  serializedVersion: 2
  m_Modification:
    m_TransformParent: {fileID: 0}
    m_Modifications: []
    m_RemovedComponents: []
  m_ParentPrefab: {fileID: 0}
  m_RootGameObject: {fileID: 1992793073932504}
  m_IsPrefabParent: 1
--- !u!1 &1992793073932504
GameObject:
  m_ObjectHideFlags: 0
  m_PrefabParentObject: {fileID: 0}
  m_PrefabInternal: {fileID: 100100000}
  serializedVersion: 5
  m_Component:
  - component: {fileID: 4900037073163982}
  - component: {fileID: 220789914520899722}
  m_Layer: 0
  m_Name: Light Probe Group
  m_TagString: Untagged
  m_Icon: {fileID: 0}
  m_NavMeshLayer: 0
  m_StaticEditorFlags: 0
  m_IsActive: 1
--- !u!4 &4900037073163982
Transform:
  m_ObjectHideFlags: 1
  m_PrefabParentObject: {fileID: 0}
  m_PrefabInternal: {fileID: 100100000}
  m_GameObject: {fileID: 1992793073932504}
  m_LocalRotation: {x: 0, y: 0, z: 0, w: 1}
  m_LocalPosition: {x: 0, y: 0, z: 0}
  m_LocalScale: {x: 1, y: 1, z: 1}
  m_Children: []
  m_Father: {fileID: 0}
  m_RootOrder: 0
  m_LocalEulerAnglesHint: {x: 0, y: 0, z: 0}
--- !u!220 &220789914520899722
LightProbeGroup:
  m_ObjectHideFlags: 1
  m_PrefabParentObject: {fileID: 0}
  m_PrefabInternal: {fileID: 100100000}
  m_GameObject: {fileID: 1992793073932504}
  m_Enabled: 1
  m_SourcePositions:
  - {x: 5.0000005, y: 9, z: 7}
  - {x: 5.000004, y: -1, z: 7}
  - {x: 3.000002, y: 9, z: 7}
  - {x: 3.0000048, y: -1, z: 7}
  - {x: 9, y: -1, z: 7}
  - {x: 9, y: 9, z: 7}
  - {x: 7.000001, y: 9, z: 7}
  - {x: 7.0000033, y: -1, z: 7}
  - {x: 1, y: -1, z: 7}
  - {x: -1, y: -1, z: 7}
  - {x: -3, y: -1, z: 7}
  - {x: -5, y: -1, z: 7}
  - {x: 1, y: 9, z: 7}
  - {x: -1, y: 9, z: 7}
  - {x: -3, y: 9, z: 7}
  - {x: -5, y: 9, z: 7}
  - {x: 9, y: 1, z: 7}
  - {x: 7.000001, y: 1, z: 7}
  - {x: 5.0000005, y: 1, z: 7}
  - {x: 3.000002, y: 1, z: 7}
  - {x: 1, y: 1, z: 7}
  - {x: -1, y: 1, z: 7}
  - {x: -3, y: 1, z: 7}
  - {x: -5, y: 1, z: 7}
  - {x: 9, y: 3, z: 7}
  - {x: 7.000001, y: 3, z: 7}
  - {x: 5.0000005, y: 3, z: 7}
  - {x: 3.000002, y: 3, z: 7}
  - {x: 1, y: 3, z: 7}
  - {x: -1, y: 3, z: 7}
  - {x: -3, y: 3, z: 7}
  - {x: -5, y: 3, z: 7}
  - {x: 9, y: 6, z: 7}
  - {x: 7.000001, y: 6, z: 7}
  - {x: 5.0000005, y: 6, z: 7}
  - {x: 3.000002, y: 6, z: 7}
  - {x: 1, y: 6, z: 7}
  - {x: -1, y: 6, z: 7}
  - {x: -3, y: 6, z: 7}
  - {x: -5, y: 6, z: 7}
  - {x: 5.0000005, y: 9, z: 12.999998}
  - {x: 5.000004, y: -1, z: 12.999998}
  - {x: 3.000002, y: 9, z: 12.999998}
  - {x: 3.0000048, y: -1, z: 12.999998}
  - {x: 9, y: -1, z: 12.999998}
  - {x: 9, y: 9, z: 12.999998}
  - {x: 7.000001, y: 9, z: 12.999998}
  - {x: 7.0000033, y: -1, z: 12.999998}
  - {x: 1, y: -1, z: 12.999998}
  - {x: -1, y: -1, z: 12.999998}
  - {x: -3, y: -1, z: 12.999998}
  - {x: -5, y: -1, z: 12.999998}
  - {x: 1, y: 9, z: 12.999998}
  - {x: -1, y: 9, z: 12.999998}
  - {x: -3, y: 9, z: 12.999998}
  - {x: -5, y: 9, z: 12.999998}
  - {x: 9, y: 1, z: 12.999998}
  - {x: 7.000001, y: 1, z: 12.999998}
  - {x: 5.0000005, y: 1, z: 12.999998}
  - {x: 3.000002, y: 1, z: 12.999998}
  - {x: 1, y: 1, z: 12.999998}
  - {x: -1, y: 1, z: 12.999998}
  - {x: -3, y: 1, z: 12.999998}
  - {x: -5, y: 1, z: 12.999998}
  - {x: 9, y: 3, z: 12.999998}
  - {x: 7.000001, y: 3, z: 12.999998}
  - {x: 5.0000005, y: 3, z: 12.999998}
  - {x: 3.000002, y: 3, z: 12.999998}
  - {x: 1, y: 3, z: 12.999998}
  - {x: -1, y: 3, z: 12.999998}
  - {x: -3, y: 3, z: 12.999998}
  - {x: -5, y: 3, z: 12.999998}
  - {x: 9, y: 6, z: 12.999998}
  - {x: 7.000001, y: 6, z: 12.999998}
  - {x: 5.0000005, y: 6, z: 12.999998}
  - {x: 3.000002, y: 6, z: 12.999998}
  - {x: 1, y: 6, z: 12.999998}
  - {x: -1, y: 6, z: 12.999998}
  - {x: -3, y: 6, z: 12.999998}
  - {x: -5, y: 6, z: 12.999998}
  - {x: 5.0000005, y: 9, z: 16}
  - {x: 5.000004, y: -1, z: 16}
  - {x: 3.000002, y: 9, z: 16}
  - {x: 3.0000048, y: -1, z: 16}
  - {x: 9, y: -1, z: 16}
  - {x: 9, y: 9, z: 16}
  - {x: 7.000001, y: 9, z: 16}
  - {x: 7.0000033, y: -1, z: 16}
  - {x: 1, y: -1, z: 16}
  - {x: -1, y: -1, z: 16}
  - {x: -3, y: -1, z: 16}
  - {x: -5, y: -1, z: 16}
  - {x: 1, y: 9, z: 16}
  - {x: -1, y: 9, z: 16}
  - {x: -3, y: 9, z: 16}
  - {x: -5, y: 9, z: 16}
  - {x: 9, y: 1, z: 16}
  - {x: 7.000001, y: 1, z: 16}
  - {x: 5.0000005, y: 1, z: 16}
  - {x: 3.000002, y: 1, z: 16}
  - {x: 1, y: 1, z: 16}
  - {x: -1, y: 1, z: 16}
  - {x: -3, y: 1, z: 16}
  - {x: -5, y: 1, z: 16}
  - {x: 9, y: 3, z: 16}
  - {x: 7.000001, y: 3, z: 16}
  - {x: 5.0000005, y: 3, z: 16}
  - {x: 3.000002, y: 3, z: 16}
  - {x: 1, y: 3, z: 16}
  - {x: -1, y: 3, z: 16}
  - {x: -3, y: 3, z: 16}
  - {x: -5, y: 3, z: 16}
  - {x: 9, y: 6, z: 16}
  - {x: 7.000001, y: 6, z: 16}
  - {x: 5.0000005, y: 6, z: 16}
  - {x: 3.000002, y: 6, z: 16}
  - {x: 1, y: 6, z: 16}
  - {x: -1, y: 6, z: 16}
  - {x: -3, y: 6, z: 16}
  - {x: -5, y: 6, z: 16}
  - {x: 5.0000005, y: 9, z: 10}
  - {x: 5.000004, y: -1, z: 10}
  - {x: 3.000002, y: 9, z: 10}
  - {x: 3.0000048, y: -1, z: 10}
  - {x: 9, y: -1, z: 10}
  - {x: 9, y: 9, z: 10}
  - {x: 7.000001, y: 9, z: 10}
  - {x: 7.0000033, y: -1, z: 10}
  - {x: 1, y: -1, z: 10}
  - {x: -1, y: -1, z: 10}
  - {x: -3, y: -1, z: 10}
  - {x: -5, y: -1, z: 10}
  - {x: 1, y: 9, z: 10}
  - {x: -1, y: 9, z: 10}
  - {x: -3, y: 9, z: 10}
  - {x: -5, y: 9, z: 10}
  - {x: 9, y: 1, z: 10}
  - {x: 7.000001, y: 1, z: 10}
  - {x: 5.0000005, y: 1, z: 10}
  - {x: 3.000002, y: 1, z: 10}
  - {x: 1, y: 1, z: 10}
  - {x: -1, y: 1, z: 10}
  - {x: -3, y: 1, z: 10}
  - {x: -5, y: 1, z: 10}
  - {x: 9, y: 3, z: 10}
  - {x: 7.000001, y: 3, z: 10}
  - {x: 5.0000005, y: 3, z: 10}
  - {x: 3.000002, y: 3, z: 10}
  - {x: 1, y: 3, z: 10}
  - {x: -1, y: 3, z: 10}
  - {x: -3, y: 3, z: 10}
  - {x: -5, y: 3, z: 10}
  - {x: 9, y: 6, z: 10}
  - {x: 7.000001, y: 6, z: 10}
  - {x: 5.0000005, y: 6, z: 10}
  - {x: 3.000002, y: 6, z: 10}
  - {x: 1, y: 6, z: 10}
  - {x: -1, y: 6, z: 10}
  - {x: -3, y: 6, z: 10}
  - {x: -5, y: 6, z: 10}
  - {x: 5.0000005, y: 9, z: -5}
  - {x: 5.000004, y: -1, z: -5}
  - {x: 3.000002, y: 9, z: -5}
  - {x: 3.0000048, y: -1, z: -5}
  - {x: 9, y: -1, z: -5}
  - {x: 9, y: 9, z: -5}
  - {x: 7.000001, y: 9, z: -5}
  - {x: 7.0000033, y: -1, z: -5}
  - {x: 1, y: -1, z: -5}
  - {x: -1, y: -1, z: -5}
  - {x: -3, y: -1, z: -5}
  - {x: -5, y: -1, z: -5}
  - {x: 1, y: 9, z: -5}
  - {x: -1, y: 9, z: -5}
  - {x: -3, y: 9, z: -5}
  - {x: -5, y: 9, z: -5}
  - {x: 9, y: 1, z: -5}
  - {x: 7.000001, y: 1, z: -5}
  - {x: 5.0000005, y: 1, z: -5}
  - {x: 3.000002, y: 1, z: -5}
  - {x: 1, y: 1, z: -5}
  - {x: -1, y: 1, z: -5}
  - {x: -3, y: 1, z: -5}
  - {x: -5, y: 1, z: -5}
  - {x: 9, y: 3, z: -5}
  - {x: 7.000001, y: 3, z: -5}
  - {x: 5.0000005, y: 3, z: -5}
  - {x: 3.000002, y: 3, z: -5}
  - {x: 1, y: 3, z: -5}
  - {x: -1, y: 3, z: -5}
  - {x: -3, y: 3, z: -5}
  - {x: -5, y: 3, z: -5}
  - {x: 9, y: 6, z: -5}
  - {x: 7.000001, y: 6, z: -5}
  - {x: 5.0000005, y: 6, z: -5}
  - {x: 3.000002, y: 6, z: -5}
  - {x: 1, y: 6, z: -5}
  - {x: -1, y: 6, z: -5}
  - {x: -3, y: 6, z: -5}
  - {x: -5, y: 6, z: -5}
  - {x: 5.0000005, y: 9, z: 1}
  - {x: 5.000004, y: -1, z: 1}
  - {x: 3.000002, y: 9, z: 1}
  - {x: 3.0000048, y: -1, z: 1}
  - {x: 9, y: -1, z: 1}
  - {x: 9, y: 9, z: 1}
  - {x: 7.000001, y: 9, z: 1}
  - {x: 7.0000033, y: -1, z: 1}
  - {x: 1, y: -1, z: 1}
  - {x: -1, y: -1, z: 1}
  - {x: -3, y: -1, z: 1}
  - {x: -5, y: -1, z: 1}
  - {x: 1, y: 9, z: 1}
  - {x: -1, y: 9, z: 1}
  - {x: -3, y: 9, z: 1}
  - {x: -5, y: 9, z: 1}
  - {x: 9, y: 1, z: 1}
  - {x: 7.000001, y: 1, z: 1}
  - {x: 5.0000005, y: 1, z: 1}
  - {x: 3.000002, y: 1, z: 1}
  - {x: 1, y: 1, z: 1}
  - {x: -1, y: 1, z: 1}
  - {x: -3, y: 1, z: 1}
  - {x: -5, y: 1, z: 1}
  - {x: 9, y: 3, z: 1}
  - {x: 7.000001, y: 3, z: 1}
  - {x: 5.0000005, y: 3, z: 1}
  - {x: 3.000002, y: 3, z: 1}
  - {x: 1, y: 3, z: 1}
  - {x: -1, y: 3, z: 1}
  - {x: -3, y: 3, z: 1}
  - {x: -5, y: 3, z: 1}
  - {x: 9, y: 6, z: 1}
  - {x: 7.000001, y: 6, z: 1}
  - {x: 5.0000005, y: 6, z: 1}
  - {x: 3.000002, y: 6, z: 1}
  - {x: 1, y: 6, z: 1}
  - {x: -1, y: 6, z: 1}
  - {x: -3, y: 6, z: 1}
  - {x: -5, y: 6, z: 1}
  - {x: 5.0000005, y: 9, z: 4}
  - {x: 5.000004, y: -1, z: 4}
  - {x: 3.000002, y: 9, z: 4}
  - {x: 3.0000048, y: -1, z: 4}
  - {x: 9, y: -1, z: 4}
  - {x: 9, y: 9, z: 4}
  - {x: 7.000001, y: 9, z: 4}
  - {x: 7.0000033, y: -1, z: 4}
  - {x: 1, y: -1, z: 4}
  - {x: -1, y: -1, z: 4}
  - {x: -3, y: -1, z: 4}
  - {x: -5, y: -1, z: 4}
  - {x: 1, y: 9, z: 4}
  - {x: -1, y: 9, z: 4}
  - {x: -3, y: 9, z: 4}
  - {x: -5, y: 9, z: 4}
  - {x: 9, y: 1, z: 4}
  - {x: 7.000001, y: 1, z: 4}
  - {x: 5.0000005, y: 1, z: 4}
  - {x: 3.000002, y: 1, z: 4}
  - {x: 1, y: 1, z: 4}
  - {x: -1, y: 1, z: 4}
  - {x: -3, y: 1, z: 4}
  - {x: -5, y: 1, z: 4}
  - {x: 9, y: 3, z: 4}
  - {x: 7.000001, y: 3, z: 4}
  - {x: 5.0000005, y: 3, z: 4}
  - {x: 3.000002, y: 3, z: 4}
  - {x: 1, y: 3, z: 4}
  - {x: -1, y: 3, z: 4}
  - {x: -3, y: 3, z: 4}
  - {x: -5, y: 3, z: 4}
  - {x: 9, y: 6, z: 4}
  - {x: 7.000001, y: 6, z: 4}
  - {x: 5.0000005, y: 6, z: 4}
  - {x: 3.000002, y: 6, z: 4}
  - {x: 1, y: 6, z: 4}
  - {x: -1, y: 6, z: 4}
  - {x: -3, y: 6, z: 4}
  - {x: -5, y: 6, z: 4}
  - {x: 5.0000005, y: 9, z: -2}
  - {x: 5.000004, y: -1, z: -2}
  - {x: 3.000002, y: 9, z: -2}
  - {x: 3.0000048, y: -1, z: -2}
  - {x: 9, y: -1, z: -2}
  - {x: 9, y: 9, z: -2}
  - {x: 7.000001, y: 9, z: -2}
  - {x: 7.0000033, y: -1, z: -2}
  - {x: 1, y: -1, z: -2}
  - {x: -1, y: -1, z: -2}
  - {x: -3, y: -1, z: -2}
  - {x: -5, y: -1, z: -2}
  - {x: 1, y: 9, z: -2}
  - {x: -1, y: 9, z: -2}
  - {x: -3, y: 9, z: -2}
  - {x: -5, y: 9, z: -2}
  - {x: 9, y: 1, z: -2}
  - {x: 7.000001, y: 1, z: -2}
  - {x: 5.0000005, y: 1, z: -2}
  - {x: 3.000002, y: 1, z: -2}
  - {x: 1, y: 1, z: -2}
  - {x: -1, y: 1, z: -2}
  - {x: -3, y: 1, z: -2}
  - {x: -5, y: 1, z: -2}
  - {x: 9, y: 3, z: -2}
  - {x: 7.000001, y: 3, z: -2}
  - {x: 5.0000005, y: 3, z: -2}
  - {x: 3.000002, y: 3, z: -2}
  - {x: 1, y: 3, z: -2}
  - {x: -1, y: 3, z: -2}
  - {x: -3, y: 3, z: -2}
  - {x: -5, y: 3, z: -2}
  - {x: 9, y: 6, z: -2}
  - {x: 7.000001, y: 6, z: -2}
  - {x: 5.0000005, y: 6, z: -2}
  - {x: 3.000002, y: 6, z: -2}
  - {x: 1, y: 6, z: -2}
  - {x: -1, y: 6, z: -2}
  - {x: -3, y: 6, z: -2}
  - {x: -5, y: 6, z: -2}
