%YAML 1.1
%TAG !u! tag:unity3d.com,2011:
--- !u!21 &2100000
Material:
  serializedVersion: 6
  m_ObjectHideFlags: 0
  m_CorrespondingSourceObject: {fileID: 0}
  m_PrefabInstance: {fileID: 0}
  m_PrefabAsset: {fileID: 0}
  m_Name: 07_My_TriplanarMapping_03
  m_Shader: {fileID: 4800000, guid: 835cbb874eb13144bad84f4199d3a261, type: 3}
  m_ShaderKeywords: _EMISSION _NORMAL_ON _SMOOTHNESSMAP_NONE
  m_LightmapFlags: 0
  m_EnableInstancingVariants: 0
  m_DoubleSidedGI: 0
  m_CustomRenderQueue: -1
  stringTagMap: {}
  disabledShaderPasses: []
  m_SavedProperties:
    serializedVersion: 3
    m_TexEnvs:
    - _DetailMask:
        m_Texture: {fileID: 0}
        m_Scale: {x: 1, y: 1}
        m_Offset: {x: 0, y: 0}
    - _DetailNormal:
        m_Texture: {fileID: 0}
        m_Scale: {x: 1, y: 1}
        m_Offset: {x: 0, y: 0}
    - _DetailTex:
        m_Texture: {fileID: 0}
        m_Scale: {x: 1, y: 1}
        m_Offset: {x: 0, y: 0}
    - _EmissiveMap:
        m_Texture: {fileID: 2800000, guid: 2b759fab0a0c47149be874e40270920d, type: 3}
        m_Scale: {x: 1, y: 1}
        m_Offset: {x: 0, y: 0}
    - _MOHSMap:
        m_Texture: {fileID: 2800000, guid: 04ff2637fb355534eb4e8171d48afb2a, type: 3}
        m_Scale: {x: 1, y: 1}
        m_Offset: {x: 0, y: 0}
    - _MOSMap:
        m_Texture: {fileID: 2800000, guid: 2a189870654c8ee47b83f88e828795fa, type: 3}
        m_Scale: {x: 1, y: 1}
        m_Offset: {x: 0, y: 0}
    - _MainTex:
        m_Texture: {fileID: 2800000, guid: 3a78c7d604153264abc44b37c88c154d, type: 3}
        m_Scale: {x: 1, y: 1}
        m_Offset: {x: 0, y: 0}
    - _MetallicSmoothnessMap:
        m_Texture: {fileID: 2800000, guid: a88375707ab10db4a8b9d01974de8ec8, type: 3}
        m_Scale: {x: 1, y: 1}
        m_Offset: {x: 0, y: 0}
    - _NormalMap:
        m_Texture: {fileID: 2800000, guid: a5dd8623ff344974dba1c9740d7f601d, type: 3}
        m_Scale: {x: 1, y: 1}
        m_Offset: {x: 0, y: 0}
    - _OcclusionMap:
        m_Texture: {fileID: 0}
        m_Scale: {x: 1, y: 1}
        m_Offset: {x: 0, y: 0}
    - _ParallaxMap:
        m_Texture: {fileID: 0}
        m_Scale: {x: 1, y: 1}
        m_Offset: {x: 0, y: 0}
    - _TopMOHSMap:
        m_Texture: {fileID: 2800000, guid: d18a2941b8ad1ff428eeee8f411bc2ce, type: 3}
        m_Scale: {x: 1, y: 1}
        m_Offset: {x: 0, y: 0}
    - _TopMainTex:
        m_Texture: {fileID: 2800000, guid: bd514ae1c8e35dc438181d81321d7a02, type: 3}
        m_Scale: {x: 1, y: 1}
        m_Offset: {x: 0, y: 0}
    - _TopNormalMap:
        m_Texture: {fileID: 2800000, guid: a64e9d8bfbaffc6449f08b3074ed70cf, type: 3}
        m_Scale: {x: 1, y: 1}
        m_Offset: {x: 0, y: 0}
    m_Floats:
    - CUSTOM_SAMPLE_SHADOW: 0
    - _AlbedoDetail: 0
    - _BlendExponent: 8
    - _BlendHeightStrength: 0.5
    - _BlendOffset: 0.25
    - _BumpScale: 1
    - _Cutoff: 0.5
    - _DetailBumpScale: 1
    - _DstBlend: 0
    - _Emission: 0
    - _MapScale: 1
    - _Metallic: 0.5
    - _MetallicMap: 0
    - _Normal: 1
    - _NormalDetail: 0
    - _Occlusion: 0
    - _OcclusionStregth: 1
    - _Parallax: 0
    - _ParallaxStrength: 0
    - _Smoothness: 0.5
    - _SmoothnessMap: 0
    - _SrcBlend: 1
    - _TessellationEdgeLength: 50
    - _TessellationUniform: 1
    - _WireframeSmoothing: 1
    - _WireframeThickness: 1
    - _ZWrite: 1
    m_Colors:
    - _Color: {r: 1, g: 1, b: 1, a: 1}
    - _EmissionColor: {r: 0, g: 0, b: 0, a: 0}
    - _WireframeColor: {r: 0, g: 0, b: 0, a: 1}
